<?xml version="1.0" encoding="utf-8"?>
<!-- Generator: Adobe Illustrator 22.1.0, SVG Export Plug-In . SVG Version: 6.00 Build 0)  -->
<svg version="1.1" xmlns="http://www.w3.org/2000/svg" xmlns:xlink="http://www.w3.org/1999/xlink" x="0px" y="0px"
	 viewBox="0 0 350 64" style="enable-background:new 0 0 350 64;" xml:space="preserve">
<style type="text/css">
	.st0{fill:#FFFFFF;}
	.st1{fill:#EC1C24;}
	.st2{fill:#3D3D3D;stroke:#3D3D3D;stroke-width:3;stroke-miterlimit:10;}
	.st3{fill:#FFFFFF;stroke:#FFFFFF;stroke-width:3;stroke-miterlimit:10;}
	.st4{fill:#3D3D3D;}
	.st5{fill:#EA1B24;}
</style>
<g id="Layer_1">
	<g>
		<g>
			<rect id="XMLID_29_" x="126.3" y="5.5" class="st0" width="194.8" height="52.8"/>
			<g id="XMLID_103_">
				<path id="XMLID_113_" class="st4" d="M234.6,10.5c0.9,0,1.6,0.3,2.2,0.9c0.6,0.6,0.9,1.3,0.9,2.2c0,0.9-0.3,1.6-0.9,2.2
					c-0.6,0.6-1.4,0.9-2.2,0.9c-0.9,0-1.6-0.3-2.2-0.9c-0.6-0.6-0.9-1.4-0.9-2.2c0-0.9,0.3-1.6,0.9-2.2
					C233,10.8,233.8,10.5,234.6,10.5z"/>
				<rect id="XMLID_112_" x="232.8" y="20.2" class="st4" width="3.8" height="29.4"/>
				<path id="XMLID_109_" class="st4" d="M241.6,38.4c0,0,0-6,0.1-7c0.4-3.4,1.5-6.1,2.8-7.6c1.3-1.4,4.9-4.3,10.5-4.3
					c6.2,0,10.2,4.3,11,6.2c0.8,1.9,1.2,4.8,1.2,8.8v15.1h-3.7V33.6c0-3.4-0.1-3.8-0.4-4.9c-0.4-1.9-1.3-3.3-2.6-4.1
					c-1.3-0.8-2.9-1.5-6-1.4c-2.3,0.1-4.2,0.6-6,2.2c-2.3,2.1-3,4.4-3,8.3v15.9h-3.8V38.4z"/>
				<path id="XMLID_107_" class="st4" d="M283.2,12.9c-1.9-1-3.7-1.1-5.5-0.2c-1.6,0.9-2.6,3.2-3.1,7.1v2.9h7v3.2h-7v23.7h-3.8V19.1
					c0.1-2.4,0.5-4.4,1.5-5.9c1.4-3,3.7-4.5,6.9-4.6c1.6-0.4,3.4,0,5.2,1.2C284.1,10.5,283.7,11.5,283.2,12.9z"/>
				<path id="XMLID_104_" class="st4" d="M301.5,18.7c4.5,0,8.3,1.6,11.2,4.9c2.7,3,4,6.5,4,10.6c0,4.1-1.4,7.7-4.3,10.7
					c-2.9,3.1-6.5,4.6-11,4.6c-4.5,0-8.2-1.5-11-4.6c-2.8-3.1-4.3-6.6-4.3-10.7c0-4.1,1.3-7.6,4-10.6
					C293.2,20.4,297,18.7,301.5,18.7z M301.5,22.4c-3.1,0-5.8,1.2-8.1,3.5c-2.7,2.8-3.8,6.4-3.2,10.7c0.1,0.4,0.1,0.7,0.2,1.1
					c1,3.2,2.8,5.5,5.3,6.9c1.7,1,3.7,1.5,5.7,1.5c2.1,0,4-0.5,5.8-1.5c1.7-1,3.1-2.4,4.1-4.3c1-1.8,1.5-3.8,1.5-6
					c0-3.3-1.1-6.1-3.4-8.4C307.3,23.6,304.6,22.4,301.5,22.4z"/>
			</g>
			<g>
				<rect id="XMLID_115_" x="28.9" y="5.5" class="st5" width="194.8" height="52.8"/>
				<g id="XMLID_88_">
					<path id="XMLID_101_" class="st0" d="M53.7,17.8l-2.8,3c-2.4-2.3-4.7-3.5-7-3.5c-1.4,0-2.7,0.5-3.7,1.4c-1,0.9-1.5,2.1-1.5,3.4
						c0,1.1,0.4,2.1,1.3,3.1c0.8,1.1,2.6,2.3,5.3,3.7c3.3,1.7,5.6,3.3,6.7,4.9c1.2,1.6,1.7,3.4,1.7,5.4c0,2.8-1,5.2-3,7.2
						s-4.5,2.9-7.4,2.9c-2,0-3.9-0.4-5.7-1.3c-1.8-0.8-3.3-2-4.5-3.6l2.8-3.2c2.3,2.6,4.7,3.8,7.2,3.8c1.8,0,3.3-0.6,4.5-1.7
						c1.2-1.1,1.9-2.5,1.9-4c0-1.3-0.4-2.4-1.2-3.4c-0.8-1-2.7-2.2-5.6-3.7c-3.1-1.6-5.2-3.2-6.4-4.8c-1.1-1.6-1.7-3.3-1.7-5.4
						c0-2.6,0.9-4.8,2.7-6.5c1.8-1.7,4-2.6,6.8-2.6C47.3,13.1,50.5,14.7,53.7,17.8z"/>
					<path id="XMLID_99_" class="st0" d="M60.9,29.4c0-2.4,1.2-9,6.4-12.7c4.1-2.9,9.7-2.4,11-1.6l-2.2,3.6
						c-6.7-0.8-9.5,4.9-10.2,7.9c-0.4,1.8-0.5,4.1-0.5,4.1v18.6h-4.5V29.4z"/>
					<path id="XMLID_96_" class="st0" d="M90.7,14.9c2.5-1.1,5.1-1.6,7.9-1.6c4.9,0,9.1,1.8,12.6,5.3c3.5,3.5,5.2,7.8,5.2,12.8
						c0,5.1-1.7,9.4-5.2,12.9c-3.5,3.5-7.6,5.3-12.5,5.3c-2.8,0-5.3-0.6-7.6-1.7c-2.3-1.1-4.4-2.8-6.3-5.1l0,15.8h-4.4
						c0,0,0-26.8,0-29.2s1.7-6.9,3.6-9.3C85.7,18,88.2,16,90.7,14.9z M88.5,21.5c-2.6,2.7-4,6-4,10c0,2.6,0.6,5,1.8,7.1
						c1.2,2.1,2.9,3.8,5,5c2.2,1.2,4.5,1.8,6.9,1.8c2.4,0,4.6-0.6,6.8-1.8c2.1-1.2,3.8-3,5-5.2c1.2-2.2,1.9-4.6,1.9-7
						c0-2.5-0.6-4.8-1.9-7c-1.2-2.2-2.9-3.9-5-5.1c-2.1-1.2-4.4-1.8-6.9-1.8C94.4,17.5,91.2,18.9,88.5,21.5z"/>
					<path id="XMLID_94_" class="st0" d="M142.7,17.8l-2.8,3c-2.4-2.3-4.7-3.5-7-3.5c-1.4,0-2.7,0.5-3.7,1.4c-1,0.9-1.5,2.1-1.5,3.4
						c0,1.1,0.4,2.1,1.3,3.1c0.8,1.1,2.6,2.3,5.3,3.7c3.3,1.7,5.6,3.3,6.7,4.9c1.2,1.6,1.7,3.4,1.7,5.4c0,2.8-1,5.2-3,7.2
						c-2,2-4.5,2.9-7.4,2.9c-2,0-3.9-0.4-5.7-1.3c-1.8-0.8-3.3-2-4.5-3.6l2.8-3.2c2.3,2.6,4.7,3.8,7.2,3.8c1.8,0,3.3-0.6,4.5-1.7
						c1.2-1.1,1.9-2.5,1.9-4c0-1.3-0.4-2.4-1.2-3.4c-0.8-1-2.7-2.2-5.6-3.7c-3.1-1.6-5.2-3.2-6.4-4.8c-1.1-1.6-1.7-3.3-1.7-5.4
						c0-2.6,0.9-4.8,2.7-6.5c1.8-1.7,4-2.6,6.8-2.6C136.2,13.1,139.5,14.7,142.7,17.8z"/>
					<path id="XMLID_92_" class="st0" d="M150.5,5.6h4.5v23.2l16-13.9h6.6L163,28l15.6,21.4h-6.3l-13.6-18.6l-3.7,3.1v15.5h-4.5V5.6
						z"/>
					<path id="XMLID_89_" class="st0" d="M199.4,13.1c5.3,0,9.7,1.9,13.2,5.8c3.2,3.5,4.8,7.7,4.8,12.5c0,11.9,0,18,0,18.2h-4.7
						v-7.8c-2.5,4.6-6.9,7.1-13.4,7.7c-5.3,0-9.6-1.8-13-5.4s-5-7.8-5-12.6c0-4.8,1.6-8.9,4.8-12.5
						C189.7,15.1,194.1,13.1,199.4,13.1z M199.4,17.5c-3.7,0-6.8,1.4-9.5,4.1c-2.6,2.7-4,6-4,9.9c0,2.5,0.7,4.9,2,7.2
						c1.4,2.3,3.6,4.3,6.9,5.9c8.1,1.8,13.9-1.9,17.3-11.1c0.2-2.9-0.1-5.8-0.9-8.4c-0.6-1.2-1.4-2.4-2.4-3.5
						C206.2,18.8,203.1,17.5,199.4,17.5z"/>
				</g>
			</g>
		</g>
	</g>
</g>
<g id="Layer_2">
</g>
</svg>
